STATS506_HW_04
…
# print arrival delays tibble
print(arrival_delays)

# A tibble: 102 × 4
   airport_name                  avg_arr_delay med_arr_delay flight_count
   <chr>                                 <dbl>         <dbl>        <int>
 1 Columbia Metropolitan                  41.8            28          116
 2 Tulsa Intl                             33.7            14          315
 3 Will Rogers World                      30.6            16          346
 4 Jackson Hole Airport                   28.1            15           25
 5 Mc Ghee Tyson                          24.1             2          631
 6 Dane Co Rgnl Truax Fld                 20.2             1          572
 7 Richmond Intl                          20.1             1         2454
 8 Akron Canton Regional Airport          19.7             3          864
 9 Des Moines Intl                        19.0             0          569
10 Gerald R Ford Intl                     18.2             1          765
# ℹ 92 more rows
…
